date,close,k1,k2
22-Jan-19-13-03,67.00,16,12
22-Jan-19-13-04,89.70,16,12
22-Jan-19-13-05,99.00,16,12
22-Jan-19-13-06,130.28,16,12
22-Jan-19-13-07,166.70,16,12
22-Jan-19-13-08,234.98,16,12
22-Jan-19-13-09,345.44,16,12
22-Jan-19-13-10,443.34,16,12
22-Jan-19-13-11,543.70,16,12
22-Jan-19-13-12,580.13,16,12
22-Jan-19-13-13,605.23,16,12
22-Jan-19-13-14,622.77,16,12
22-Jan-19-13-15,626.20,16,12
22-Jan-19-13-16,628.44,16,12
22-Jan-19-13-17,636.23,16,12
22-Jan-19-13-18,633.68,16,12
22-Jan-19-13-19,624.31,16,12
22-Jan-19-13-20,629.32,16,12
22-Jan-19-13-21,618.63,16,12
22-Jan-19-13-22,599.55,16,12
22-Jan-19-13-23,609.86,16,12
22-Jan-19-13-24,617.62,16,12
22-Jan-19-13-25,614.48,16,12
22-Jan-19-13-26,606.98,16,12
22-Jan-19-13-27,560.00,16,12
22-Jan-19-13-28,500.00,16,12